{
  "project_info": {
    "project_number": "817365243728",
    "firebase_url": "https://oeyoi-voice.firebaseio.com",
    "project_id": "oeyoi-voice",
    "storage_bucket": "oeyoi-voice.appspot.com"
  },
  "client": [
    {
      "client_info": {
        "mobilesdk_app_id": "1:817365243728:android:5100b2f0ac7d9d2d",
        "android_client_info": {
          "package_name": "com.app.oeyoi"
        }
      },
      "oauth_client": [
        {
          "client_id": "817365243728-ovsklgdjcvc1uteun27eergsvqqvhjqi.apps.googleusercontent.com",
          "client_type": 1,
          "android_info": {
            "package_name": "com.app.oeyoi",
            "certificate_hash": "fae213976a92305737de39456bb5ddbe4b3d60ec"
          }
        },
        {
          "client_id": "817365243728-t9mi2hia9fc4nn0b2eu9qahhu08p8his.apps.googleusercontent.com",
          "client_type": 1,
          "android_info": {
            "package_name": "com.app.oeyoi",
            "certificate_hash": "53e2026713a652c9572a187e8b635bdda03874dc"
          }
        },
        {
          "client_id": "817365243728-v2jc7i6i60iubo639g4s53mquq2hm122.apps.googleusercontent.com",
          "client_type": 3
        }
      ],
      "api_key": [
        {
          "current_key": "AIzaSyBBBUZaxpyqFe4yvtlCdQkc5gDD8WOxk84"
        }
      ],
      "services": {
        "analytics_service": {
          "status": 1
        },
        "appinvite_service": {
          "status": 2,
          "other_platform_oauth_client": [
            {
              "client_id": "817365243728-v2jc7i6i60iubo639g4s53mquq2hm122.apps.googleusercontent.com",
              "client_type": 3
            },
            {
              "client_id": "817365243728-0ummart8dgrvr48gik4ejggv6vditibn.apps.googleusercontent.com",
              "client_type": 2,
              "ios_info": {
                "bundle_id": "com.apps.Oeyoi"
              }
            }
          ]
        },
        "ads_service": {
          "status": 2
        }
      }
    }
  ],
  "configuration_version": "1"
}